nuggets: Get Started
…
The result is a tibble containing the discovered rules. Additional
quality metrics may be computed:

result <- add_interest(result, measures = c("conviction", "leverage"))

You can arrange the resulting rules, for example, by decreasing
support:

result <- arrange(result, desc(support))
print(result)
#> # A tibble: 526 × 15
#>    antecedent                     consequent support confidence coverage
#>    <chr>                          <chr>        <dbl>      <dbl>    <dbl>
#>  1 {gear=3}                       {am=0}       0.469      1        0.469
#>  2 {gear=3,vs=0}                  {am=0}       0.375      1        0.375
#>  3 {cyl=eight,gear=3,vs=0}        {am=0}       0.375      1        0.375
#>  4 {cyl=eight,vs=0}               {am=0}       0.375      0.857    0.438
#>  5 {cyl=eight,gear=3}             {am=0}       0.375      1        0.375
#>  6 {cyl=eight}                    {am=0}       0.375      0.857    0.438
#>  7 {mpg=(-Inf;15;20)}             {am=0}       0.327      0.847    0.387
#>  8 {drat=(-Inf;2.76;3.84)}        {am=0}       0.311      0.948    0.328
#>  9 {gear=3,mpg=(-Inf;15;20)}      {am=0}       0.309      1        0.309
#> 10 {drat=(-Inf;2.76;3.84),gear=3} {am=0}       0.307      1        0.307
#>    conseq_support  lift count antecedent_length    pp    pn    np    nn
#>             <dbl> <dbl> <dbl>             <int> <dbl> <dbl> <dbl> <dbl>
#>  1          0.594  1.68 15                    1 15    0      4     13  
#>  2          0.594  1.68 12                    2 12    0      7     13  
#>  3          0.594  1.68 12                    3 12    0      7     13  
#>  4          0.594  1.44 12                    2 12    2      7     11  
#>  5          0.594  1.68 12                    2 12    0      7     13  
#>  6          0.594  1.44 12                    1 12    2      7     11  
#>  7          0.594  1.43 10.5                  1 10.5  1.90   8.52  11.1
#>  8          0.594  1.60  9.96                 1  9.96 0.546  9.04  12.5
#>  9          0.594  1.68  9.88                 2  9.88 0      9.12  13  
#> 10          0.594  1.68  9.82                 2  9.82 0      9.18  13  
#>    conviction leverage
#>         <dbl>    <dbl>
#>  1     Inf      0.190 
#>  2     Inf      0.152 
#>  3     Inf      0.152 
#>  4       2.84   0.115 
#>  5     Inf      0.152 
#>  6       2.84   0.115 
#>  7       2.65   0.0978
#>  8       7.82   0.116 
#>  9     Inf      0.125 
#> 10     Inf      0.125 
#> # ℹ 516 more rows
…
# Search for conditional correlations
corr_result <- dig_correlations(combined_mtcars,
                                condition = colnames(crisp_mtcars),
                                xvars = c("mpg", "hp"),
                                yvars = c("wt", "disp"),
                                disjoint = disj_combined,
                                min_length = 1,
                                max_length = 2,
                                min_support = 0.2,
                                method = "pearson")

print(corr_result)
#> # A tibble: 536 × 10
#>    condition               support xvar  yvar  estimate     p_value
#>    <chr>                     <dbl> <chr> <chr>    <dbl>       <dbl>
#>  1 {carb=(-Inf;3.33]}        0.625 mpg   wt      -0.887 0.000000183
#>  2 {carb=(-Inf;3.33]}        0.625 mpg   disp    -0.816 0.0000116  
#>  3 {carb=(-Inf;3.33]}        0.625 hp    wt       0.791 0.0000326  
#>  4 {carb=(-Inf;3.33]}        0.625 hp    disp     0.877 0.000000388
#>  5 {am=0,carb=(-Inf;3.33]}   0.375 mpg   wt      -0.632 0.0274     
#>  6 {am=0,carb=(-Inf;3.33]}   0.375 mpg   disp    -0.633 0.0270     
#>  7 {am=0,carb=(-Inf;3.33]}   0.375 hp    wt       0.755 0.00453    
#>  8 {am=0,carb=(-Inf;3.33]}   0.375 hp    disp     0.813 0.00131    
#>  9 {carb=(-Inf;3.33],vs=0}   0.25  mpg   wt      -0.823 0.0121     
#> 10 {carb=(-Inf;3.33],vs=0}   0.25  mpg   disp    -0.585 0.128      
#>    method                               alternative     n condition_length
#>    <chr>                                <chr>       <int>            <int>
#>  1 Pearson's product-moment correlation two.sided      20                1
#>  2 Pearson's product-moment correlation two.sided      20                1
#>  3 Pearson's product-moment correlation two.sided      20                1
#>  4 Pearson's product-moment correlation two.sided      20                1
#>  5 Pearson's product-moment correlation two.sided      12                2
#>  6 Pearson's product-moment correlation two.sided      12                2
#>  7 Pearson's product-moment correlation two.sided      12                2
#>  8 Pearson's product-moment correlation two.sided      12                2
#>  9 Pearson's product-moment correlation two.sided       8                2
#> 10 Pearson's product-moment correlation two.sided       8                2
#> # ℹ 526 more rows
…
# Flatten and format results
custom_result <- custom_result |>
  unlist(recursive = FALSE) |>
  lapply(as_tibble) |>
  do.call(rbind, args = _) |>
  arrange(desc(support))

print(custom_result)
#> # A tibble: 5,408 × 4
#>    antecedent              consequent support confidence
#>    <chr>                   <chr>        <dbl>      <dbl>
#>  1 {gear=3}                am=0          15         32  
#>  2 {wt=(1.51;3.47;5.42)}   am=0          14.0       22.6
#>  3 {qsec=(14.5;18.7;22.9)} am=0          12.2       19.5
#>  4 {hp=(52;194;335)}       am=0          12.1       24.2
#>  5 {vs=0}                  am=0          12         21.3
#>  6 {gear=3,vs=0}           am=0          12         32  
#>  7 {cyl=eight,gear=3,vs=0} am=0          12         32  
#>  8 {cyl=eight,vs=0}        am=0          12         27.4
#>  9 {cyl=eight,gear=3}      am=0          12         32  
#> 10 {cyl=eight}             am=0          12         27.4
#> # ℹ 5,398 more rows
…
# Display results
print(grid_result)
#> # A tibble: 40 × 9
#>    condition                                     support xvar  yvar  correlation
#>    <chr>                                           <dbl> <chr> <chr>       <dbl>
#>  1 {qsec=(14.5;18.7;22.9)}                         0.627 mpg   wt         -0.894
#>  2 {qsec=(14.5;18.7;22.9)}                         0.627 hp    wt          0.849
#>  3 {qsec=(14.5;18.7;22.9),wt=(1.51;3.47;5.42)}     0.360 mpg   wt         -0.816
#>  4 {qsec=(14.5;18.7;22.9),wt=(1.51;3.47;5.42)}     0.360 hp    wt          0.710
#>  5 {am=0,qsec=(14.5;18.7;22.9)}                    0.383 mpg   wt         -0.810
#>  6 {am=0,qsec=(14.5;18.7;22.9)}                    0.383 hp    wt          0.759
#>  7 {drat=(2.76;3.84;4.93),qsec=(14.5;18.7;22.9)}   0.341 mpg   wt         -0.850
#>  8 {drat=(2.76;3.84;4.93),qsec=(14.5;18.7;22.9)}   0.341 hp    wt          0.770
#>  9 {qsec=(14.5;18.7;22.9),vs=0}                    0.294 mpg   wt         -0.865
#> 10 {qsec=(14.5;18.7;22.9),vs=0}                    0.294 hp    wt          0.791
#>    n_obs mean_x mean_y condition_length
#>    <int>  <dbl>  <dbl>            <int>
#>  1    29   20.7   3.19                1
#>  2    29  131.    3.19                1
#>  3    24   19.4   3.27                2
#>  4    24  135.    3.27                2
#>  5    18   17.0   3.83                2
#>  6    18  158.    3.83                2
#>  7    26   22.0   2.93                2
#>  8    26  118.    2.93                2
#>  9    16   16.4   3.88                2
#> 10    16  175.    3.88                2
#> # ℹ 30 more rows
…
